regionsalesp.regionid,regionsalesp.promotionid,regionsalesp.promotioncost,regionsalesp.wkdaysales,regionsalesp.wkendsales
26,622,9881,622,0
5,1484,10247,1484,1653.1
28,75,6763,75,0
18,1150,13823,1150,1013.35
18,1141,11401,1141,0
22,824,11729,824,838.67
3,544,8326,544,1049.42
27,296,10673,296,1282.71
84,1294,5518,1294,1103
106,701,11087,701,1087.46
87,1214,7995,1214,1111.05
2,704,9618,704,287.94
47,536,5816,536,773.8
28,55,5297,55,1226.08
23,1015,14383,1015,1322.44
1,1096,5323,1096,73.17
87,1235,13342,1235,1156.31
3,521,5382,521,927.55
88,1712,12741,1712,0
47,523,13181,523,1671.15
22,842,6227,842,0
18,1136,13466,1136,0
47,508,12920,508,1180.42
78,121,9515,121,0
78,152,10157,152,39.94
18,1180,13158,1180,0
22,861,5206,861,2228.2
1,1070,13643,1070,89.84
87,1220,6499,1220,756.99
5,1493,5100,1493,1575.82
3,517,13592,517,1110.66
18,1182,6963,1182,3346.33
89,1789,8959,1789,991.13
87,1257,11460,1257,823.05
1,1093,12867,1093,127.48
6,1577,13006,1577,614.65
22,836,8185,836,0
22,820,10822,820,1859.82
27,301,13944,301,733.69
4,374,11691,374,98.77
2,698,14531,698,370.31
88,1715,13829,1715,253.9
1,1071,14524,1071,98.98
23,988,12361,988,1504.72
87,1242,10666,1242,0
47,533,10196,533,869.99
26,619,6570,619,3627.23
27,290,12193,290,1440.76
3,548,14735,548,876.25
7,1860,9229,1860,0
7,1873,7765,1873,904.84
2,697,14887,697,1026.09
7,1892,14862,1892,1361.67
3,549,8179,549,3390.26
78,135,12430,135,68.32
84,1328,9574,1328,0
6,1558,5902,1558,345.23
22,821,12436,1642,1942.85
88,1689,13161,1689,92.32
3,527,14717,527,0
89,1811,8115,1811,451.99
24,785,12548,785,1221.52
5,1489,13818,1489,1709.42
2,700,13717,700,485.84
6,1564,11472,1564,330.59
87,1223,9521,1223,796.01
18,1152,5919,1152,0
3,541,12251,541,0
25,449,6863,449,0
106,704,9618,704,1719.84
4,389,7933,389,48.83
1,1085,9565,1085,61.17
3,501,14304,501,867.64
3,514,14126,514,0
1,1083,9525,1083,86.16
27,312,6568,312,858.03
22,850,11930,850,0
78,108,7302,108,102.38
22,862,5313,862,985.39
27,313,9065,313,1125.1
7,1850,11205,1850,1078.15
88,1733,8718,1733,0
47,506,13734,506,528.76
4,381,14632,381,81.93
2,703,12583,703,832.32
47,528,8588,528,1638.83
7,1882,12120,1882,0
78,145,12009,145,119.64
6,1572,5116,1572,376.05
78,118,11498,118,0
18,1175,14541,1175,1091.6
76,195,8621,195,757.99
18,1142,14418,1142,814.53
78,126,10903,126,194.76
88,1706,13982,1706,25.07
89,1788,11589,1788,531.9
76,227,10610,227,2265.92
47,518,10789,518,799.15
87,1216,10091,1216,1906.88
23,986,13175,986,1153.28
18,1140,13777,1140,704.9
89,1778,9356,1778,0
89,1807,10760,1807,0
84,1324,13674,1324,1481.82
4,372,11050,372,108.28
27,304,9311,304,0
25,465,13554,465,552.61
7,1846,10132,1846,745.17
6,1568,14717,1568,476.06
18,1154,9977,1154,952.86
2,686,14053,686,441.42
1,1090,13401,1090,99.65
7,1869,9647,1869,1401.98
106,700,13717,700,1553.21
89,1781,5658,1781,0
84,1332,5983,1332,1967.01
76,201,6271,201,1031.06
18,1157,9443,1157,1139.1
2,696,9734,696,683.11
24,781,14431,781,950.28
7,1845,9771,1845,2112.82
28,58,11219,58,0
7,1851,10377,1851,0
84,1322,14258,1322,1357.45
88,1731,5513,1731,130.5
22,849,6720,849,1216
88,1702,12909,1702,56.34
47,524,12688,524,1138.03
26,624,5649,624,1278.09
1,1084,12195,1084,0
89,1792,14834,1792,1000.51
76,197,11825,197,900.48
47,526,12820,526,1132.35
87,1233,8937,1233,1572.87
84,1303,13881,1303,0
106,703,12583,703,1738.67
7,1879,13936,1879,1050.44
88,1719,11692,1719,0
88,1698,13590,1698,0
1,1089,11585,1089,174.06
26,609,8355,609,1463.54
22,863,6701,863,936.59
47,550,11704,550,0
7,1872,8686,1872,1299.36
7,1893,8306,1893,0
25,460,14672,460,3354.37
76,199,6484,199,869.2
2,692,10161,692,926.41
47,521,5382,521,1107.41
3,545,6897,545,807.02
76,214,5147,214,0
22,818,12144,818,892.44
106,686,14053,686,1504.02
18,1166,13360,1166,0
18,1160,13146,1160,913.09
2,690,14139,690,878.94
28,73,5522,73,901.55
4,377,13120,377,49.08
26,617,5329,617,0
2,687,6209,687,842.61
89,1783,13989,1783,439.91
78,140,12964,140,88.87
89,1771,5988,1771,438.52
24,783,9598,783,1057.53
106,707,9938,707,1025.42
1,1066,6751,1066,0
23,1014,5079,1014,1535.81
106,696,9734,696,1494.97
106,688,13753,688,1354.59
18,1138,13853,1138,1008.56
28,54,7327,54,0
76,222,10620,222,869.92
23,1000,5490,1000,836.83
6,1570,8776,1570,391.94
23,1005,12662,2010,3860.55
84,1339,7032,1339,1574.16
4,382,8411,382,37.97
1,1058,7605,1058,71.74
5,1497,9545,1497,0
87,1255,11674,1255,3446.39
47,549,8179,549,1339.41
4,373,8674,373,98.99
22,854,11249,854,706.59
22,826,12624,826,1006.92
22,859,13919,859,2126.56
78,112,11793,112,0
78,143,9058,143,92.49
4,379,11935,379,110.34
1,1100,11962,1100,111.02
3,537,14641,537,971.4
47,547,14975,547,1010.8
76,220,6815,220,1143.94
5,1479,9713,1479,1314.7
24,764,7772,764,2266.8
47,538,6711,538,731.31
23,1012,14438,1012,1098.07
87,1245,13550,1245,904.26
24,782,7701,782,1173.1
25,461,5436,461,0
4,383,6127,383,97.59
18,1168,9128,1168,2312.27
3,512,6165,512,794.36
25,462,8707,462,1259.63
78,122,7913,122,56.01
3,504,10184,504,2469.68
76,205,5127,205,0
84,1317,10906,1317,0
78,120,10430,120,66.15
87,1246,13657,1246,1347.13
78,154,11052,154,87.69
3,505,5337,505,1371.36
28,59,10390,59,1068.49
25,452,12363,452,547.17
23,1008,8029,1008,1683.28
76,188,8497,188,1014.67
6,1569,13288,1569,386.59
89,1768,9085,1768,472.28
2,699,11047,699,472.42
3,519,5596,519,763.58
7,1859,13141,1859,0
7,1853,10417,1853,943.83
4,370,12372,370,96.4
1,1078,10526,1078,120.51
7,1876,5094,1876,2280.44
84,1292,11513,1292,1232.19
7,1858,6879,1858,1105.6
89,1798,12114,1798,0
23,1001,11151,1001,1361.03
78,137,12216,137,113.71
47,539,9555,539,936.16
25,463,13260,463,504.2
89,1794,11549,1794,312.38
22,848,7641,848,1098.29
25,453,9479,453,1872.51
22,833,14019,833,1739.51
22,841,10993,841,1101.75
106,694,10802,694,1366.97
6,1559,7544,1559,446.7
23,1019,5411,1019,3292.85
87,1225,9307,1225,1972.87
76,233,8261,233,0
88,1726,13097,1726,125.46
88,1723,12720,1723,0
4,375,9661,375,107.17
84,1307,14908,1307,2633.05
26,618,6891,618,1499.72
76,187,5827,187,0
7,1890,12512,1890,890.28
1,1081,11955,1081,87.31
76,190,12302,190,923.68
25,457,13925,457,512.14
3,536,5816,536,767.6
76,224,6618,224,0
28,62,14209,62,0
22,847,13770,847,1123.95
7,1878,5735,1878,0
25,459,12510,459,0
84,1314,5112,1314,1155.18
7,1856,6292,1856,882.91
27,299,7576,299,1124.83
84,1331,6731,1331,1707.79
3,523,13181,523,1424.43
23,976,9578,976,1659.27
47,534,6884,534,797.87
1,1094,12719,1094,51.87
88,1708,9496,1708,87.93
87,1231,8642,1231,706.65
89,1772,9166,1772,0
2,693,10441,693,481.61
84,1336,6965,1336,2709.21
87,1244,9852,1244,0
25,470,11525,470,1665.7
7,1871,14814,1871,0
106,699,11047,699,1364.77
84,1337,9463,1337,1264.66
78,139,10802,139,139.31
24,776,6212,776,1013.54
76,207,12950,207,2354.77
5,1498,14271,1498,0
26,615,11640,615,1552.35
25,450,8679,900,1452.42
27,305,14718,305,1172.14
24,767,6637,767,971.63
78,155,13896,155,115.45
7,1866,6025,1866,0
76,212,10574,212,0
4,388,6915,388,0
23,1023,6947,1023,0
22,844,11740,844,880.34
26,614,13162,614,1296.16
84,1297,10365,1297,0
47,510,6725,510,0
89,1786,12403,1786,402.43
5,1485,14454,1485,1381.49
87,1228,10055,1228,0
22,837,5301,837,1960.18
89,1773,9700,1773,384.11
78,129,5242,129,131.6
24,773,13755,773,1086.47
47,543,13746,543,930.2
25,451,6274,451,1777.98
27,297,8990,297,1146.58
23,1016,5345,1016,1184.57
78,133,7770,133,62.5
47,515,7732,515,553.16
2,691,10909,691,488.4
26,606,7688,606,0
84,1311,9100,1311,1375.76
89,1797,14917,1797,0
5,1496,10720,1496,1864.48
47,545,6897,545,1025.59
84,1330,7305,1330,0
88,1710,6973,1710,117.22
1,1077,10165,1077,122.98
24,768,11017,768,937.61
26,626,9938,626,3494.94
78,119,9469,119,76.93
76,204,10921,204,679.41
18,1134,7698,1134,0
18,1143,12388,1143,839.42
89,1769,14746,1769,0
4,369,7392,369,68.66
1,1099,12456,1099,91.38
84,1293,12247,1293,1460.74
89,1800,7374,1800,506.37
26,625,11056,625,1709.96
4,378,11518,378,99.44
87,1248,5752,1248,2265.49
25,458,9158,458,1706.97
18,1146,14245,1146,852.27
87,1236,6267,1236,979.77
47,502,11252,502,1103.81
78,114,12180,114,152
84,1312,7151,1312,0
47,513,9655,513,0
84,1304,11170,1304,1183.48
7,1888,7207,1888,1272.62
23,982,6627,982,995.71
106,693,10441,693,1272.93
7,1847,8103,1847,0
24,777,5545,777,958.79
3,516,6476,516,1297.12
22,853,14560,853,698.39
23,980,5986,980,3772.75
23,992,8262,992,1295.76
5,1495,6087,1495,1555.34
76,210,14552,210,0
23,1010,8416,1010,1532.65
89,1765,8186,1765,848.07
76,202,11505,202,893.12
27,291,14782,291,1056.66
78,149,13290,149,103
88,1701,6728,1701,137.26
3,518,10789,518,0
22,829,11836,829,3058.22
26,607,9077,607,1343.12
1,1062,6924,1062,46.37
84,1323,13937,1323,1591.12
5,1475,5321,1475,1134.73
47,511,11786,511,728.9
1,1079,8497,1079,74.39
88,1709,10030,1709,86.94
88,1704,6759,1704,58.57
1,1065,7845,1065,77.04
24,787,6954,787,848.25
1,1061,13399,1061,86.52
106,689,9160,689,1516.18
88,1711,5197,1711,160.3
25,467,7959,467,2274.03
89,1814,11681,1814,0
1,1056,13546,1056,66.34
28,63,11926,63,0
18,1171,6678,1171,1588.22
47,504,10184,504,1376.52
1,1064,9528,1064,113.1
1,1054,10175,1054,0
23,984,5559,984,2182.46
5,1487,12277,1487,1873.77
89,1775,7524,1775,443.34
87,1252,6226,1252,0
76,185,10914,185,809.67
89,1776,8969,1776,483.48
78,124,7098,124,96.93
88,1694,7435,1694,91.35
47,519,5596,519,805.37
87,1251,9745,1251,813.76
18,1149,10044,1149,766.9
106,695,8773,695,1554.03
88,1714,7059,3428,182.41
5,1486,7724,1486,0
26,629,6240,629,1188.96
25,466,14862,466,2178.14
47,522,10616,522,923.7
6,1566,5277,1566,482.27
87,1241,5940,1241,1970
18,1170,13580,1170,1388.22
1,1092,5751,1092,42.65
78,138,7450,138,0
4,387,10827,387,58.09
25,455,14138,455,1573
26,621,12938,621,0
18,1177,8000,1177,731.22
3,526,12820,526,1053.75
1,1072,12067,1072,94.52
